%YAML 1.1
%TAG !u! tag:unity3d.com,2011:
--- !u!74 &7400000
AnimationClip:
  m_ObjectHideFlags: 0
  m_CorrespondingSourceObject: {fileID: 0}
  m_PrefabInstance: {fileID: 0}
  m_PrefabAsset: {fileID: 0}
  m_Name: dead
  serializedVersion: 6
  m_Legacy: 0
  m_Compressed: 0
  m_UseHighQualityCurve: 1
  m_RotationCurves: []
  m_CompressedRotationCurves: []
  m_EulerCurves: []
  m_PositionCurves: []
  m_ScaleCurves: []
  m_FloatCurves: []
  m_PPtrCurves:
  - curve:
    - time: 0
      value: {fileID: 21300000, guid: 7aa8ae5b71f67334fb600c6cc08f7857, type: 3}
    - time: 0.18333334
      value: {fileID: 21300000, guid: 1546ab0afb8304447870ce5261bd00bc, type: 3}
    - time: 0.35
      value: {fileID: 21300000, guid: 403857b1b5f884a4a8c27f71e3a2b15f, type: 3}
    - time: 0.55
      value: {fileID: 21300000, guid: 6af2a03971cf8ea4b85bc11e63a523ec, type: 3}
    - time: 0.73333335
      value: {fileID: 21300000, guid: 45e16591fbc79dd449bb9e13e3d4ee6c, type: 3}
    - time: 0.9
      value: {fileID: 21300000, guid: 0a832d48337d532448a8fe25089844b8, type: 3}
    - time: 1.0833334
      value: {fileID: 21300000, guid: a1b6743977b88a74cbb134beb5a5bec4, type: 3}
    - time: 1.25
      value: {fileID: 21300000, guid: 0a832d48337d532448a8fe25089844b8, type: 3}
    - time: 1.4166666
      value: {fileID: 21300000, guid: a1b6743977b88a74cbb134beb5a5bec4, type: 3}
    - time: 1.5833334
      value: {fileID: 21300000, guid: 0a832d48337d532448a8fe25089844b8, type: 3}
    - time: 1.75
      value: {fileID: 21300000, guid: 0a832d48337d532448a8fe25089844b8, type: 3}
    attribute: m_Sprite
    path: 
    classID: 212
    script: {fileID: 0}
  m_SampleRate: 60
  m_WrapMode: 0
  m_Bounds:
    m_Center: {x: 0, y: 0, z: 0}
    m_Extent: {x: 0, y: 0, z: 0}
  m_ClipBindingConstant:
    genericBindings:
    - serializedVersion: 2
      path: 0
      attribute: 0
      script: {fileID: 0}
      typeID: 212
      customType: 23
      isPPtrCurve: 1
    pptrCurveMapping:
    - {fileID: 21300000, guid: 7aa8ae5b71f67334fb600c6cc08f7857, type: 3}
    - {fileID: 21300000, guid: 1546ab0afb8304447870ce5261bd00bc, type: 3}
    - {fileID: 21300000, guid: 403857b1b5f884a4a8c27f71e3a2b15f, type: 3}
    - {fileID: 21300000, guid: 6af2a03971cf8ea4b85bc11e63a523ec, type: 3}
    - {fileID: 21300000, guid: 45e16591fbc79dd449bb9e13e3d4ee6c, type: 3}
    - {fileID: 21300000, guid: 0a832d48337d532448a8fe25089844b8, type: 3}
    - {fileID: 21300000, guid: a1b6743977b88a74cbb134beb5a5bec4, type: 3}
    - {fileID: 21300000, guid: 0a832d48337d532448a8fe25089844b8, type: 3}
    - {fileID: 21300000, guid: a1b6743977b88a74cbb134beb5a5bec4, type: 3}
    - {fileID: 21300000, guid: 0a832d48337d532448a8fe25089844b8, type: 3}
    - {fileID: 21300000, guid: 0a832d48337d532448a8fe25089844b8, type: 3}
  m_AnimationClipSettings:
    serializedVersion: 2
    m_AdditiveReferencePoseClip: {fileID: 0}
    m_AdditiveReferencePoseTime: 0
    m_StartTime: 0
    m_StopTime: 1.7666667
    m_OrientationOffsetY: 0
    m_Level: 0
    m_CycleOffset: 0
    m_HasAdditiveReferencePose: 0
    m_LoopTime: 0
    m_LoopBlend: 0
    m_LoopBlendOrientation: 0
    m_LoopBlendPositionY: 0
    m_LoopBlendPositionXZ: 0
    m_KeepOriginalOrientation: 0
    m_KeepOriginalPositionY: 1
    m_KeepOriginalPositionXZ: 0
    m_HeightFromFeet: 0
    m_Mirror: 0
  m_EditorCurves: []
  m_EulerEditorCurves: []
  m_HasGenericRootTransform: 0
  m_HasMotionFloatCurves: 0
  m_Events:
  - time: 1.75
    functionName: DestroyBoss
    data: 
    objectReferenceParameter: {fileID: 0}
    floatParameter: 0
    intParameter: 0
    messageOptions: 0
